# Alias OBJ Model File
# Exported from SketchUp, (c) 2000-2012 Trimble Navigation Limited
# File units = meters

mtllib la_cosa_medialab.mtl

g Mesh1 Model

usemtl FrontColor
v 14.1246 8.21752 -0.697388
vt 556.088 127.499
vn -3.29394e-016 0.949586 0.313506
v 14.6692 6.89823 3.29862
vt 577.528 -38.1769
v 17.7792 6.89823 3.29862
vt 699.969 -38.1769
v 17.1846 8.21752 -0.697388
vt 676.561 127.499
f 1/1/1 2/2/1 3/3/1 4/4/1 

vt 199.337 248.938
vn -0.991731 -0.0402346 0.121868
vt 40.5729 300.921
v 14.1246 8.11306 -0.731873
vt 39.2253 296.805
v 14.6692 6.79378 3.26414
vt 197.989 244.823
f 2/5/2 1/6/2 5/7/2 6/8/2 

vt -556.088 298.607
vn 4.20047e-016 0.313506 -0.949586
vt -676.561 298.607
v 17.1846 8.11306 -0.731873
vt -676.561 294.276
vt -556.088 294.276
f 1/9/3 4/10/3 7/11/3 5/12/3 

vt -62.7533 293.643
vn 0.990166 0.0438594 -0.132847
vt -221.792 241.653
v 17.7792 6.79378 3.26414
vt -220.447 237.536
vt -61.4077 289.526
f 4/13/4 3/14/4 8/15/4 7/16/4 

vt 699.969 298.607
vn -1.54296e-015 -0.313506 0.949586
vt 577.528 298.607
vt 577.528 294.276
vt 699.969 294.276
f 3/17/5 2/18/5 6/19/5 8/20/5 

vt -577.528 -38.1769
vn 3.29394e-016 -0.949586 -0.313506
vt -556.088 127.499
vt -676.561 127.499
vt -699.969 -38.1769
f 6/21/6 5/22/6 7/23/6 8/24/6 

g Mesh2 Model

v 20.2334 1.41425 -1.03168
vt -796.59 55.6792
vn -8.11851e-016 -1.45831e-033 -1
v 17.1034 1.41425 -1.03168
vt -673.361 55.6792
v 17.1034 4.51425 -1.03168
vt -673.361 177.726
v 20.2334 4.51425 -1.03168
vt -796.59 177.726
f 9/25/7 10/26/7 11/27/7 12/28/7 

vt -673.361 40.6172
vn 0 -1 -0
vt -796.59 40.6172
v 20.2334 1.41425 -0.831677
vt -796.59 32.7432
v 17.1034 1.41425 -0.831677
vt -673.361 32.7432
f 10/29/8 9/30/8 13/31/8 14/32/8 

vt 32.7432 55.6792
vn 1 -1.75408e-031 6.93681e-014
vt 40.6172 55.6792
vt 40.6172 177.726
v 20.2334 4.51425 -0.831677
vt 32.7432 177.726
f 13/33/9 9/34/9 12/35/9 15/36/9 

vt 796.59 40.6172
vn 0 1 -0
vt 673.361 40.6172
v 17.1034 4.51425 -0.831677
vt 673.361 32.7432
vt 796.59 32.7432
f 12/37/10 11/38/10 16/39/10 15/40/10 

vt -40.6172 55.6792
vn -1 0 2.79637e-015
vt -32.7432 55.6792
vt -32.7432 177.726
vt -40.6172 177.726
f 10/41/11 14/42/11 16/43/11 11/44/11 

vt 673.361 55.6792
vn 2.98372e-016 0 1
vt 796.59 55.6792
vt 796.59 177.726
vt 673.361 177.726
f 14/45/12 13/46/12 15/47/12 16/48/12 

g Mesh3 Model

v 20.473 3.99121 -3.9038
vt 806.024 153.693
vn -3.6343e-015 1 -9.82692e-017
v 20.2702 3.99121 -3.91479
vt 798.038 154.125
v 20.2702 3.99121 -3.74454
vt 798.038 147.423
v 20.4638 3.99121 -3.73405
vt 805.662 147.01
f 17/49/13 18/50/13 19/51/13 20/52/13 

v 20.473 1.38286 -3.9038
vt -796.533 54.4432
vn 0.0540788 3.0645e-017 -0.998537
v 20.0636 1.38286 -3.92597
vt -780.391 54.4432
v 20.0636 3.99121 -3.92597
vt -780.391 157.134
vt -788.536 157.134
vt -796.533 157.134
f 21/53/14 22/54/14 23/55/14 18/56/14 17/57/14 

v 20.0544 1.38286 -3.75622
vt -789.544 147.883
vt -789.906 154.566
vt -806.024 153.693
v 20.4638 1.38286 -3.73405
vt -805.662 147.01
f 24/58/8 22/59/8 21/60/8 25/61/8 

vt -197.057 157.134
vn -0.998537 0 -0.0540788
vt -197.057 54.4432
vt -190.364 54.4432
v 20.0544 3.99121 -3.75622
vt -190.364 157.134
f 23/62/15 22/63/15 24/64/15 26/65/15 

vt 780.391 54.4432
vn -0.0540788 3.18385e-017 0.998537
vt 796.533 54.4432
vt 796.533 157.134
vt 788.898 157.134
vt 780.391 157.134
f 24/66/16 25/67/16 20/68/16 19/69/16 26/70/16 

vt 190.364 54.4432
vn 0.998537 0 0.0540788
vt 197.057 54.4432
vt 197.057 157.134
vt 190.364 157.134
f 25/71/17 21/72/17 17/73/17 20/74/17 

vt -798.038 154.125
vn -3.41219e-015 -1 -9.22636e-017
vt -798.038 147.423
f 18/75/18 19/76/18 26/58/18 23/59/18 

vt 154.125 157.134
vn 1 0 -0
v 20.2702 3.99121 -4.02328
vt 158.397 157.134
v 20.2702 4.15121 -4.02328
vt 158.397 163.434
v 20.2702 4.15121 -0.893276
vt 35.1684 163.434
v 20.2702 3.99121 -0.893276
vt 35.1684 157.134
vt 147.423 157.134
f 18/77/19 27/78/19 28/79/19 29/80/19 30/81/19 19/82/19 

vt -798.038 158.397
vn 2.64602e-016 -1 -2.81379e-016
vt -798.038 35.1684
v 17.1202 3.99121 -0.893276
vt -674.023 35.1684
v 17.1202 3.99121 -4.02328
vt -674.023 158.397
f 27/83/20 18/75/20 23/59/20 26/58/20 19/76/20 30/84/20 31/85/20 32/86/20 

vt 674.023 157.134
vn 0 0 1
vt 798.038 157.134
vt 798.038 163.434
v 17.1202 4.15121 -0.893276
vt 674.023 163.434
f 31/87/21 30/88/21 29/89/21 33/90/21 

vt 674.023 35.1684
vt 798.038 35.1684
vt 798.038 158.397
v 17.1202 4.15121 -4.02328
vt 674.023 158.397
f 33/91/10 29/92/10 28/93/10 34/94/10 

vt -798.038 157.134
vn 0 0 -1
vt -674.023 157.134
vt -674.023 163.434
vt -798.038 163.434
f 27/95/22 32/96/22 34/97/22 28/98/22 

vt -158.397 157.134
vn -1 0 -0
vt -35.1684 157.134
vt -35.1684 163.434
vt -158.397 163.434
f 32/99/23 31/100/23 33/101/23 34/102/23 

g Mesh4 Model

v 16.8817 1.42367 -4.38714
vt -664.636 172.722
v 17.0622 1.42367 -4.43442
vt -671.74 174.583
v 17.1814 1.42367 -3.93979
vt -676.433 155.11
v 17.001 1.42367 -3.89252
vt -669.329 153.249
f 35/103/8 36/104/8 37/105/8 38/106/8 

v 15.6948 4.22349 -9.13024
vt -688.836 248.478
vn -0.125951 -0.867778 -0.480726
vt -694.055 26.6678
vt -686.711 26.6678
v 15.5144 4.22349 -9.08297
vt -681.492 248.478
f 39/107/24 36/108/24 35/109/24 40/110/24 

vt -20.1783 56.0499
vn 0.960124 8.24155e-017 -0.279573
vt 172.375 166.279
v 15.6948 6.78349 -9.13024
vt 172.375 267.066
v 17.0622 3.98367 -4.43442
vt -20.1783 156.837
f 36/111/25 39/112/25 41/113/25 42/114/25 

vt 70.932 267.066
vn 0.910008 2.92369e-020 -0.41459
vt 70.932 166.279
v 15.6323 4.22349 -9.26746
vt 76.8683 166.279
v 15.6323 6.78349 -9.26746
vt 76.8683 267.066
f 41/115/26 39/116/26 43/117/26 44/118/26 

vt -617.907 359.458
vt -610.803 357.597
v 15.4519 4.22349 -9.22018
vt -608.342 362.999
vt -615.446 364.86
f 39/119/8 40/120/8 45/121/8 43/122/8 

vt -72.1835 166.279
vn -0.910008 -2.92369e-020 0.41459
v 15.5144 6.78349 -9.08297
vt -72.1835 267.066
v 15.4519 6.78349 -9.22018
vt -78.1198 267.066
vt -78.1198 166.279
f 40/123/27 46/124/27 47/125/27 45/126/27 

vt -172.574 166.279
vn -0.960124 -8.24155e-017 0.279573
vt 19.9792 56.0499
v 16.8817 3.98367 -4.38714
vt 19.9792 156.837
vt -172.574 267.066
f 40/127/28 35/128/28 48/129/28 46/130/28 

vt -12.193 156.837
vn -0.972165 0 0.234296
vt -12.193 56.0499
vt 7.83804 56.0499
v 17.001 3.98367 -3.89252
vt 7.83804 156.837
f 48/131/29 35/132/29 38/133/29 49/134/29 

vt 686.315 56.0499
vn 0.253447 0 0.967349
vt 693.659 56.0499
v 17.1814 3.98367 -3.93979
vt 693.659 156.837
vt 686.315 156.837
f 38/135/30 37/136/30 50/137/30 49/138/30 

vt 12.338 56.0499
vn 0.972165 0 -0.234296
vt 12.338 156.837
vt -7.69302 156.837
vt -7.69302 56.0499
f 36/139/31 42/140/31 50/141/31 37/142/31 

vt 671.74 174.583
vt 664.636 172.722
vt 669.329 153.249
vt 676.433 155.11
f 42/143/10 48/144/10 49/145/10 50/146/10 

vt 694.055 76.7543
vn 0.125951 0.867778 0.480726
vt 688.836 298.565
vt 681.492 298.565
vt 686.711 76.7543
f 42/147/32 41/148/32 46/149/32 48/150/32 

vt 610.803 357.597
vn -4.9259e-015 1 -1.8801e-014
vt 617.907 359.458
vt 615.446 364.86
vt 608.342 362.999
f 46/151/33 41/152/33 44/153/33 47/154/33 

vt -680.48 166.279
vn -0.253447 -1.61237e-031 -0.967349
vt -680.48 267.066
vt -687.824 267.066
vt -687.824 166.279
f 45/155/34 47/156/34 44/157/34 43/158/34 

g Mesh5 Model

v 12.9746 4.23824 -10.7637
vt 510.812 423.767
v 11.321 4.23824 -9.08495
vt 445.708 357.675
v 19.0367 4.23824 -9.09896
vt 749.476 358.227
v 17.6978 4.23824 -10.7501
vt 696.763 423.231
f 51/159/10 52/160/10 53/161/10 54/162/10 

vt -567.593 166.86
vn -0.712411 0 -0.701762
vt -660.365 166.86
v 12.9746 4.10824 -10.7637
vt -660.365 161.742
v 11.321 4.10824 -9.08495
vt -567.593 161.742
f 52/163/35 51/164/35 55/165/35 56/166/35 

vt -509.587 166.86
vn 0.00288556 0 -0.999996
vt -695.539 166.86
v 17.6978 4.10824 -10.7501
vt -695.539 161.742
vt -509.587 161.742
f 51/167/36 54/168/36 57/169/36 55/170/36 

vt -110.13 166.86
vn 0.776714 0 -0.629853
vt -193.82 166.86
v 19.0367 4.10824 -9.09896
vt -193.82 161.742
vt -110.13 161.742
f 54/171/37 53/172/37 58/173/37 57/174/37 

vt 750.125 166.86
vn 0.00181549 0 0.999998
vt 446.356 166.86
vt 446.356 161.742
vt 750.125 161.742
f 53/175/38 52/176/38 56/177/38 58/178/38 

vt -445.708 357.675
vt -510.812 423.767
vt -696.763 423.231
vt -749.476 358.227
f 56/179/8 55/180/8 57/181/8 58/182/8 

g Mesh6 Model

v 10.2602 4.81121 -0.893276
vt 403.944 35.1684
v 20.2502 4.81121 -0.893276
vt 797.251 35.1684
v 20.2502 4.81121 -3.74328
vt 797.251 147.373
v 10.2602 4.81121 -3.74328
vt 403.944 147.373
f 59/183/10 60/184/10 61/185/10 62/186/10 

v 10.2602 4.65121 -0.893276
vt 403.944 183.119
v 20.2502 4.65121 -0.893276
vt 797.251 183.119
vt 797.251 189.418
vt 403.944 189.418
f 63/187/21 64/188/21 60/189/21 59/190/21 

vt -797.251 35.1684
vt -403.944 35.1684
v 10.2602 4.65121 -3.74328
vt -403.944 147.373
v 20.2502 4.65121 -3.74328
vt -797.251 147.373
f 64/191/8 63/192/8 65/193/8 66/194/8 

vt -147.373 183.119
vt -35.1684 183.119
vt -35.1684 189.418
vt -147.373 189.418
f 65/195/23 63/196/23 59/197/23 62/198/23 

vt -797.251 183.119
vt -403.944 183.119
vt -403.944 189.418
vt -797.251 189.418
f 66/199/22 65/200/22 62/201/22 61/202/22 

vt 35.1684 183.119
vt 147.373 183.119
vt 147.373 189.418
vt 35.1684 189.418
f 64/203/19 66/204/19 61/205/19 60/206/19 

g Mesh7 Model

v 14.1388 4.67609 -0.801829
vt 556.646 184.098
v 17.1388 4.67609 -0.801829
vt 674.756 184.098
v 17.1388 7.42609 -0.801829
vt 674.756 292.366
v 14.1388 7.42609 -0.801829
vt 556.646 292.366
f 67/207/21 68/208/21 69/209/21 70/210/21 

v 14.1388 4.67609 -1.00183
vt -556.646 39.4421
v 17.1388 4.67609 -1.00183
vt -674.756 39.4421
vt -674.756 31.5681
vt -556.646 31.5681
f 71/211/8 72/212/8 68/213/8 67/214/8 

vt -674.756 184.098
vt -556.646 184.098
v 14.1388 7.42609 -1.00183
vt -556.646 292.366
v 17.1388 7.42609 -1.00183
vt -674.756 292.366
f 72/215/22 71/216/22 73/217/22 74/218/22 

vt -39.4421 184.098
vt -31.5681 184.098
vt -31.5681 292.366
vt -39.4421 292.366
f 71/219/23 67/220/23 70/221/23 73/222/23 

vt 674.756 39.4421
vt 556.646 39.4421
vt 556.646 31.5681
vt 674.756 31.5681
f 74/223/10 73/224/10 70/225/10 69/226/10 

vt 31.5681 184.098
vt 39.4421 184.098
vt 39.4421 292.366
vt 31.5681 292.366
f 68/227/19 72/228/19 74/229/19 69/230/19 

g Mesh8 Model

v 10.2234 4.74012 -0.950451
vt 97.9256 245.306
vn -0.932156 0.155422 0.327
v 12.0358 6.78681 3.24327
vt 277.344 326.876
v 12.0354 6.89472 3.19079
vt 275.389 331.177
v 10.223 4.84803 -1.00294
vt 95.9703 249.607
f 75/231/39 76/232/39 77/233/39 78/234/39 

vt 402.782 50.8634
vn 0.00349008 -0.899274 0.437371
v 14.1309 4.78326 -0.892932
vt 556.599 54.7465
v 14.6358 6.79783 3.24517
vt 575.175 236.082
vt 472.817 235.091
f 75/235/40 79/236/40 80/237/40 76/238/40 

vt -555.518 189.616
vn 0.018063 -0.437246 -0.899161
vt -401.664 187.727
vt -401.606 192.451
v 14.1305 4.89117 -0.945417
vt -555.46 194.34
f 79/239/41 75/240/41 78/241/41 81/242/41 

vt -472.817 235.091
vn -0.00349008 0.899274 -0.437371
v 14.6354 6.90574 3.19268
vt -575.175 236.082
vt -556.599 54.7465
vt -402.782 50.8634
f 77/243/42 82/244/42 81/245/42 78/246/42 

vt 474.206 185.019
vn -0.00250954 0.437365 0.899281
vt 576.567 185.501
vt 576.545 190.225
vt 474.183 189.743
f 76/247/43 80/248/43 82/249/43 77/250/43 

vt -184.559 292.352
vn 0.994031 -0.044571 -0.099574
vt -20.472 212.959
vt -18.4143 217.212
vt -182.502 296.605
f 80/251/44 79/252/44 81/253/44 82/254/44 

g Mesh9 Model

v 20.3102 8.04121 -0.773276
vt -799.613 30.444
v 10.1702 8.04121 -0.773276
vt -400.401 30.444
v 10.1702 8.04121 -3.70328
vt -400.401 145.798
v 20.3102 8.04121 -3.70328
vt -799.613 145.798
f 83/255/8 84/256/8 85/257/8 86/258/8 

vt 400.401 316.583
vt 799.613 316.583
v 20.3102 8.20121 -0.773276
vt 799.613 322.882
v 10.1702 8.20121 -0.773276
vt 400.401 322.882
f 84/259/21 83/260/21 87/261/21 88/262/21 

vt 30.444 316.583
vt 145.798 316.583
v 20.3102 8.20121 -3.70328
vt 145.798 322.882
vt 30.444 322.882
f 83/263/19 86/264/19 89/265/19 87/266/19 

vt -799.613 316.583
vt -400.401 316.583
v 10.1702 8.20121 -3.70328
vt -400.401 322.882
vt -799.613 322.882
f 86/267/22 85/268/22 90/269/22 89/270/22 

vt -145.798 316.583
vt -30.444 316.583
vt -30.444 322.882
vt -145.798 322.882
f 85/271/23 84/272/23 88/273/23 90/274/23 

vt 400.401 30.444
vt 799.613 30.444
vt 799.613 145.798
vt 400.401 145.798
f 88/275/10 87/276/10 89/277/10 90/278/10 

g Mesh10 Model

v 14.2948 8.23 -0.762274
vt -562.7 324.016
vn -0.109116 0 -0.994029
v 14.1258 8.23 -0.743724
vt -556.007 324.016
v 14.1258 11.29 -0.743724
vt -556.007 444.488
v 14.2948 11.29 -0.762274
vt -562.7 444.488
f 91/279/45 92/280/45 93/281/45 94/282/45 

v 14.6899 6.84 3.549
vt -559.641 -109.991
vn -0.0333612 -0.952115 -0.303915
vt -556.007 68.9993
vt -562.7 68.9993
v 14.8588 6.84 3.53045
vt -566.334 -109.991
f 95/283/46 92/284/46 91/285/46 96/286/46 

vt 43.4243 324.016
vn -0.991477 -1.78196e-017 0.130284
vt 213.882 269.291
v 14.6899 9.9 3.549
vt 213.882 389.764
vt 43.4243 444.488
f 92/287/47 95/288/47 97/289/47 93/290/47 

vt 559.641 269.291
vn 0.109116 0 0.994029
vt 566.334 269.291
v 14.8588 9.9 3.53045
vt 566.334 389.764
vt 559.641 389.764
f 95/291/48 96/292/48 98/293/48 97/294/48 

vt -214.025 269.291
vn 0.991477 -1.78196e-017 -0.130284
vt -43.567 324.016
vt -43.567 444.488
vt -214.025 389.764
f 96/295/49 91/296/49 94/297/49 98/298/49 

vt 556.007 105.833
vn 0.0333612 0.952115 0.303915
vt 559.641 -73.1573
vt 566.334 -73.1573
vt 562.7 105.833
f 93/299/50 97/300/50 98/301/50 94/302/50 

g Mesh11 Model

v 17.3547 8.21713 -0.702705
vt -682.193 323.509
v 17.1857 8.21713 -0.684155
vt -675.5 323.509
v 17.1857 11.2771 -0.684155
vt -675.5 443.982
v 17.3547 11.2771 -0.702705
vt -682.193 443.982
f 99/303/45 100/304/45 101/305/45 102/306/45 

v 17.6597 6.82713 3.40857
vt -676.471 -112.355
vn -0.0348816 -0.947527 -0.317766
vt -675.5 58.8329
vt -682.193 58.8329
v 17.8287 6.82713 3.39002
vt -683.164 -112.355
v 17.7919 6.82713 3.39406
vt -681.705 -112.355
f 103/307/51 100/308/51 99/309/51 104/310/51 105/311/51 

vt 51.0973 323.509
vn -0.993358 -9.82049e-018 0.115066
vt 213.305 268.785
v 17.6597 9.88713 3.40857
vt 213.305 389.257
vt 51.0973 443.982
f 100/312/52 103/313/52 106/314/52 101/315/52 

vt 676.471 268.785
vn 0.109116 -1.53835e-017 0.994029
vt 681.705 268.785
vt 683.164 268.785
v 17.8287 9.88713 3.39002
vt 683.164 389.257
vt 676.471 389.257
f 103/316/53 105/317/53 104/318/53 107/319/53 106/320/53 

vt -213.346 268.785
vn 0.993358 1.9641e-017 -0.115066
vt -51.1373 323.509
vt -51.1373 443.982
vt -213.346 389.257
f 104/321/54 99/322/54 102/323/54 107/324/54 

vt 675.5 97.3449
vn 0.0348816 0.947527 0.317766
vt 676.471 -73.8431
vt 683.164 -73.8431
vt 682.193 97.3449
f 101/325/55 106/326/55 107/327/55 102/328/55 

g Mesh12 Model

v 10.1911 7.62076 -1.02154
vt -403.218 131.778
vn -0.0466757 0.903892 -0.425207
v 12.098 9.77404 3.34652
vt -459.079 329.961
v 12.267 9.77404 3.32797
vt -465.772 329.961
v 10.3601 7.62076 -1.04009
vt -409.911 131.778
f 108/329/56 109/330/56 110/331/56 111/332/56 

vt 311.31 384.805
vn -0.916476 4.69243e-016 0.400089
vt 123.667 300.03
v 10.1911 4.85076 -1.02154
vt 123.667 190.975
v 12.0658 6.94076 3.27276
vt 308.142 273.258
f 109/333/57 108/334/57 112/335/57 113/336/57 

vt -403.218 190.975
vt -403.218 300.03
vt -409.911 300.03
v 10.3601 4.85076 -1.04009
vt -409.911 190.975
f 112/337/45 108/338/45 111/339/45 114/340/45 

v 12.2348 6.94076 3.25421
vt -310.134 273.258
vn 0.916476 -1.56414e-016 -0.400089
vt -125.659 190.975
vt -125.659 300.03
vt -313.302 384.805
f 115/341/58 114/342/58 111/343/58 110/344/58 

vt 403.218 84.2846
vn 0.046189 -0.905989 0.420774
vt 409.911 84.2846
vt 464.829 278.67
vt 458.136 278.67
f 112/345/59 114/346/59 115/347/59 113/348/59 

vt 464.829 278.035
vn 0.109076 -0.0271072 0.993664
vt 465.772 389.622
vt 459.079 389.622
vt 458.136 278.035
f 115/349/60 110/350/60 109/351/60 113/352/60 

g Mesh13 Model

v 12.0613 9.79296 3.43622
vt 475.231 288.13
v 14.6613 9.80397 3.43812
vt 577.592 288.612
v 14.6604 10.0288 3.32877
vt 577.545 298.454
v 12.0604 10.0178 3.32687
vt 475.184 297.972
f 116/353/43 117/354/43 118/355/43 119/356/43 

vt 576.118 294.686
vt 473.76 293.695
v 10.0526 7.46474 -1.33477
vt 396.177 84.1268
v 13.9601 7.50788 -1.27725
vt 549.994 88.0099
f 117/357/40 116/358/40 120/359/40 121/360/40 

vt 78.2803 349.928
vn -0.935277 0.151852 0.319684
vt 281.597 442.666
vt 277.513 451.621
v 10.0517 7.68956 -1.44411
vt 74.1957 358.883
f 120/361/61 116/362/61 119/363/61 122/364/61 

vt -473.76 293.695
vt -576.118 294.686
v 13.9592 7.7327 -1.38659
vt -549.994 88.0099
vt -396.177 84.1268
f 119/365/42 118/366/42 123/367/42 122/368/42 

vt -204.133 415.933
vn 0.991174 -0.05485 -0.120686
vt -16.5134 325.4
vt -12.2359 334.264
vt -199.856 424.797
f 117/369/62 121/370/62 123/371/62 118/372/62 

vt -548.489 292.642
vt -394.635 290.754
vt -394.514 300.595
vt -548.368 302.484
f 121/373/41 120/374/41 122/375/41 123/376/41 

g Mesh14 Model

v 14.6913 10.0033 3.55454
vt 221.14 393.829
vn -0.989742 7.4102e-015 0.142866
v 14.072 11.4404 -0.736052
vt 50.4688 450.408
v 14.072 11.2904 -0.736052
vt 50.4688 444.502
v 14.6913 9.85327 3.55454
vt 221.14 387.924
f 124/377/63 125/378/63 126/379/63 127/380/63 

vt 554.015 170.527
vn 1.84191e-016 0.948225 0.317598
vt 578.398 -7.61742
v 17.8332 10.06 3.38516
vt 702.096 -0.584767
v 17.3232 11.45 -0.764842
vt 682.017 171.722
f 125/381/64 124/382/64 128/383/64 129/384/64 

v 17.8332 9.91 3.38516
vt 693.903 390.157
vn 0.0538317 5.44603e-017 0.99855
vt 693.903 396.063
vt 570.026 393.829
vt 570.026 387.924
f 130/385/65 128/386/65 124/387/65 127/388/65 

vt -217.916 390.157
vn 0.992533 0 -0.121974
v 17.3232 11.3 -0.764842
vt -53.3013 444.882
vt -53.3013 450.787
vt -217.916 396.063
f 130/389/66 131/390/66 129/391/66 128/392/66 

vt -554.015 168.651
vn -2.16224e-016 -0.948225 -0.317598
vt -682.017 169.847
vt -702.096 -2.46035
vt -578.398 -9.493
f 126/393/67 131/394/67 130/395/67 127/396/67 

vt -554.25 444.502
vn -0.0088546 7.95796e-018 -0.999961
vt -554.25 450.408
vt -682.257 450.787
vt -682.257 444.882
f 126/397/68 125/398/68 129/399/68 131/400/68 

g Mesh15 Model

v 13.9535 4.89975 -0.942796
vt -550.121 192.904
vn -0.109116 6.44719e-017 -0.994029
v 13.9535 7.66975 -0.942796
vt -550.121 301.959
v 14.1225 7.66975 -0.961346
vt -556.814 301.959
v 14.1225 4.89975 -0.961346
vt -556.814 192.904
f 132/401/69 133/402/69 134/403/69 135/404/69 

v 14.5398 9.85335 3.53969
vt 212.418 387.927
vn -0.991555 0 0.129686
vt 34.4388 301.959
vt 34.4388 192.904
v 14.5398 7.08335 3.53969
vt 212.418 278.872
f 136/405/70 133/406/70 132/407/70 137/408/70 

vt -550.121 152.11
vn -0.0474677 0.900421 -0.432422
vt -553.808 349.729
v 14.7088 9.85335 3.52114
vt -560.501 349.729
vt -556.814 152.11
f 133/409/71 136/410/71 138/411/71 134/412/71 

v 14.7088 7.08335 3.52114
vt 560.501 278.872
vt 560.501 387.927
vt 553.808 387.927
vt 553.808 278.872
f 139/413/48 138/414/48 136/415/48 137/416/48 

vt -212.556 278.872
vn 0.991555 3.9891e-017 -0.129686
vt -34.5775 192.904
vt -34.5775 301.959
vt -212.556 387.927
f 139/417/72 135/418/72 134/419/72 138/420/72 

vt 550.121 104.669
vn 0.0474677 -0.900421 0.432422
vt 556.814 104.669
vt 560.501 302.288
vt 553.808 302.288
f 132/421/73 135/422/73 139/423/73 137/424/73 

g Mesh16 Model

v 16.7037 9.28939 5.60956
vt 91.6837 365.724
vn 0.897582 8.06186e-015 0.440848
v 17.8137 9.92713 3.34956
vt 190.813 390.832
v 17.8137 10.0571 3.34956
vt 190.813 395.95
v 16.7037 9.41939 5.60956
vt 91.6837 370.842
f 140/425/74 141/426/74 142/427/74 143/428/74 

vt -657.628 -113.225
vn -2.7412e-018 -0.962416 -0.27158
v 12.9737 9.28939 5.60956
vt -510.777 -113.225
v 12.0937 9.92713 3.34956
vt -476.132 -20.7742
vt -701.329 -20.7742
f 140/429/75 144/430/75 145/431/75 141/432/75 

vt 510.777 365.724
vt 657.628 365.724
vt 657.628 370.842
v 12.9737 9.41939 5.60956
vt 510.777 370.842
f 144/433/21 140/434/21 143/435/21 146/436/21 

vt 510.777 -111.835
vn 3.91601e-018 0.962416 0.27158
vt 657.628 -111.835
vt 701.329 -19.3843
v 12.0937 10.0571 3.34956
vt 476.132 -19.3843
f 146/437/76 143/438/76 142/439/76 147/440/76 

vt -701.329 390.832
vt -476.132 390.832
vt -476.132 395.95
vt -701.329 395.95
f 141/441/22 145/442/22 147/443/22 142/444/22 

vt 295.647 390.832
vn -0.93185 0 0.362844
vt 391.131 365.724
vt 391.131 370.842
vt 295.647 395.95
f 145/445/77 144/446/77 146/447/77 147/448/77 

g Mesh17 Model

v 17.6932 6.83713 3.30337
vt -696.584 -130.054
v 17.7888 6.83713 3.34956
vt -700.346 -131.873
v 17.6709 6.83713 3.34956
vt -695.705 -131.873
f 148/449/8 149/450/8 150/451/8

v 17.8193 6.83713 3.3643
vt -689.263 269.178
vn 0.435231 7.19426e-018 -0.900319
v 17.809 6.83713 3.35931
vt -688.812 269.178
vt -687.93 269.178
vt -683.751 269.178
v 17.6932 9.90713 3.30337
vt -683.751 390.045
v 17.8193 9.90713 3.3643
vt -689.263 390.045
f 151/452/78 152/453/78 149/454/78 148/455/78 153/456/78 154/457/78 

v 17.8137 6.83713 3.34956
vt 701.329 -131.873
vt 700.346 -131.873
vt 701.14 -132.256
f 155/458/10 149/459/10 152/460/10

g Mesh18 Model

v 10.354 4.79 -3.76053
vt 370.334 188.583
vn -0.197657 0 0.980271
v 10.4717 4.79 -3.73681
vt 375.058 188.583
v 10.4717 7.43 -3.73681
vt 375.058 292.52
v 10.354 7.43 -3.76053
vt 370.334 292.52
f 156/461/79 157/462/79 158/463/79 159/464/79 

vt 375.058 -205.19
vn -0.0202562 -0.994735 0.10046
vt 370.334 -205.19
v 11.3759 4.22 -9.19853
vt 367.454 -424.165
v 11.4936 4.22 -9.17481
vt 372.179 -424.165
f 157/465/80 156/466/80 160/467/80 161/468/80 

vt -220.79 188.583
vn -0.982798 0 -0.184684
vt -220.79 292.52
v 11.3759 6.86 -9.19853
vt -438.632 270.079
vt -438.632 166.142
f 156/469/81 159/470/81 162/471/81 160/472/81 

vt -370.334 -194.538
vn 0.0202562 0.994735 -0.10046
vt -375.058 -194.538
v 11.4936 6.86 -9.17481
vt -372.179 -413.514
vt -367.454 -413.514
f 159/473/82 158/474/82 163/475/82 162/476/82 

vt 220.727 292.52
vn 0.982798 1.47878e-017 0.184684
vt 220.727 188.583
vt 438.569 166.142
vt 438.569 270.079
f 158/477/83 157/478/83 161/479/83 163/480/83 

vt -372.179 166.142
vn 0.197657 0 -0.980271
vt -367.454 166.142
vt -367.454 270.079
vt -372.179 270.079
f 161/481/84 160/482/84 162/483/84 163/484/84 

g Mesh19 Model

v 11.3233 7.04508 -9.08011
vt -441.834 310.808
vn 0.0109713 -0.0958065 -0.99534
v 15.5308 7.06219 -9.03538
vt -607.491 311.484
v 15.5313 6.91288 -9.02101
vt -607.515 305.579
v 11.3238 6.89577 -9.06574
vt -441.858 304.902
f 164/485/85 165/486/85 166/487/85 167/488/85 

vt -622.38 -308.021
vn -0.003029 0.995392 -0.0958449
vt -456.871 -315.046
v 10.3102 7.55689 -3.7328
vt -410.355 -104.918
v 15.4935 7.57184 -3.74132
vt -614.327 -98.7794
f 165/489/86 164/490/86 168/491/86 169/492/86 

vt -219.228 289.743
vn -0.982672 -0.020726 -0.184193
vt -433.497 269.589
vt -432.944 263.71
v 10.3107 7.40758 -3.71842
vt -218.675 283.864
f 168/493/87 164/494/87 167/495/87 170/496/87 

vt 456.871 -315.046
vn 0.003029 -0.995392 0.0958449
vt 622.38 -308.021
v 15.4939 7.42253 -3.72695
vt 614.327 -98.7794
vt 410.355 -104.918
f 167/497/88 166/498/88 171/499/88 170/500/88 

vt 359.812 275.791
vn 0.999971 0.00368798 0.00669913
vt 151.379 295.856
vt 150.813 289.978
vt 359.246 269.913
f 165/501/89 169/502/89 171/503/89 166/504/89 

vt 610.179 310.77
vn 0.00136067 0.0958494 0.995395
vt 406.116 310.178
vt 406.133 304.273
vt 610.197 304.864
f 169/505/90 168/506/90 170/507/90 171/508/90 

g Mesh20 Model

v 11.361 7.07824 -9.08495
vt -568.698 278.671
v 13.0146 7.07824 -10.7637
vt -661.47 278.671
v 13.0146 6.94824 -10.7637
vt -661.47 273.553
v 11.361 6.94824 -9.08495
vt -568.698 273.553
f 172/509/35 173/510/35 174/511/35 175/512/35 

vt 512.386 423.767
vt 447.282 357.675
v 19.1869 7.07824 -8.9095
vt 755.389 350.768
v 17.6278 7.07824 -10.7501
vt 694.007 423.231
f 173/513/10 172/514/10 176/515/10 177/516/10 

vt 747.338 278.671
vn -0.0224138 0 0.999749
vt 439.153 278.671
vt 439.153 273.553
v 19.1869 6.94824 -8.9095
vt 747.338 273.553
f 176/517/91 172/518/91 175/519/91 178/520/91 

vt -447.282 357.675
vt -512.386 423.767
v 17.6278 6.94824 -10.7501
vt -694.007 423.231
vt -755.389 350.768
f 175/521/8 174/522/8 179/523/8 178/524/8 

vt -511.132 278.671
vn 0.00295436 0 -0.999996
vt -692.754 278.671
vt -692.754 273.553
vt -511.132 273.553
f 173/525/92 177/526/92 179/527/92 174/528/92 

vt -125.635 278.671
vn 0.763037 0 -0.646355
vt -220.601 278.671
vt -220.601 273.553
vt -125.635 273.553
f 177/529/93 176/530/93 178/531/93 179/532/93 

g Mesh21 Model

v 17.5878 6.95 -10.724
vt 692.432 422.204
v 19.1153 6.95 -8.8334
vt 752.57 347.772
v 19.204 6.95 -8.93221
vt 756.061 351.662
v 17.6808 6.95 -10.7998
vt 696.093 425.19
f 180/533/10 181/534/10 182/535/10 183/536/10 

v 17.5878 4.24 -10.724
vt 106.759 166.929
vn -0.777841 0 0.628461
v 19.1153 4.24 -8.8334
vt 202.45 166.929
vt 202.45 273.622
vt 106.759 273.622
f 184/537/94 185/538/94 181/539/94 180/540/94 

vt -752.57 347.772
vt -692.432 422.204
v 17.6808 4.24 -10.7998
vt -696.093 425.19
v 19.204 4.24 -8.93221
vt -756.061 351.662
f 185/541/8 184/542/8 186/543/8 187/544/8 

vt -808.166 166.929
vn -0.632029 0 -0.774944
vt -803.442 166.929
vt -803.442 273.622
vt -808.166 273.622
f 186/545/95 184/546/95 180/547/95 183/548/95 

vt -205.334 166.929
vn 0.774944 0 -0.632029
vt -110.453 166.929
vt -110.453 273.622
vt -205.334 273.622
f 187/549/96 186/550/96 183/551/96 182/552/96 

vt 761.47 273.622
vn 0.744252 0 0.667898
vt 761.47 166.929
vt 766.697 166.929
vt 766.697 273.622
f 181/553/97 185/554/97 187/555/97 182/556/97 

g Mesh22 Model

v 12.887 6.95 -10.7515
vt 507.361 423.286
v 11.3532 6.95 -9.14364
vt 446.978 359.986
v 11.4618 6.95 -9.06729
vt 451.254 356.98
v 12.9733 6.95 -10.6681
vt 510.759 420.004
f 188/557/10 189/558/10 190/559/10 191/560/10 

v 12.887 4.24 -10.7515
vt -656.482 166.929
vn -0.723581 0 -0.690239
v 11.3532 4.24 -9.14364
vt -569.001 166.929
vt -569.001 273.622
vt -656.482 273.622
f 192/561/98 193/562/98 189/563/98 188/564/98 

vt -446.978 359.986
vt -507.361 423.286
v 12.9733 4.24 -10.6681
vt -510.759 420.004
v 11.4618 4.24 -9.06729
vt -451.254 356.98
f 193/565/8 192/566/8 194/567/8 195/568/8 

vt -75.6502 166.929
vn 0.694658 0 -0.71934
vt -70.9258 166.929
vt -70.9258 273.622
vt -75.6502 273.622
f 194/569/99 192/570/99 188/571/99 191/572/99 

vt 569.359 166.929
vn 0.727113 0 0.686518
vt 656.036 166.929
vt 656.036 273.622
vt 569.359 273.622
f 195/573/100 194/574/100 191/575/100 190/576/100 

vt 158.652 273.622
vn -0.575078 0 0.818099
vt 158.652 166.929
vt 163.879 166.929
vt 163.879 273.622
f 189/577/101 193/578/101 195/579/101 190/580/101 

g Mesh23 Model

v 9.67017 7.59121 -0.973276
vt 380.716 38.318
v 20.3002 7.59121 -0.973276
vt 799.219 38.318
v 20.3002 7.59121 -3.88328
vt 799.219 152.885
v 9.67017 7.59121 -3.88328
vt 380.716 152.885
f 196/581/10 197/582/10 198/583/10 199/584/10 

v 9.67017 7.43121 -0.973276
vt 380.716 292.568
v 20.3002 7.43121 -0.973276
vt 799.219 292.568
vt 799.219 298.867
vt 380.716 298.867
f 200/585/21 201/586/21 197/587/21 196/588/21 

vt -799.219 38.318
vt -380.716 38.318
v 9.67017 7.43121 -3.88328
vt -380.716 152.885
v 20.3002 7.43121 -3.88328
vt -799.219 152.885
f 201/589/8 200/590/8 202/591/8 203/592/8 

vt -152.885 292.568
vt -38.318 292.568
vt -38.318 298.867
vt -152.885 298.867
f 202/593/23 200/594/23 196/595/23 199/596/23 

vt -799.219 292.568
vt -380.716 292.568
vt -380.716 298.867
vt -799.219 298.867
f 203/597/22 202/598/22 199/599/22 198/600/22 

vt 38.318 292.568
vt 152.885 292.568
vt 152.885 298.867
vt 38.318 298.867
f 201/601/19 203/602/19 198/603/19 197/604/19 

g Mesh24 Model

v 15.3745 4.26 -9.50005
vt -374.018 167.717
v 15.3745 4.26 -9.32005
vt -366.931 167.717
v 15.3745 6.92 -9.32005
vt -366.931 272.441
v 15.3745 6.92 -9.50005
vt -374.018 272.441
f 204/605/23 205/606/23 206/607/23 207/608/23 

vt -605.294 374.018
v 15.8245 4.26 -9.50005
vt -623.011 374.018
v 15.8245 4.26 -9.32005
vt -623.011 366.931
vt -605.294 366.931
f 204/609/8 208/610/8 209/611/8 205/612/8 

vt -623.011 167.717
vt -605.294 167.717
vt -605.294 272.441
v 15.8245 6.92 -9.50005
vt -623.011 272.441
f 208/613/22 204/614/22 207/615/22 210/616/22 

vt 623.011 374.018
vt 605.294 374.018
vt 605.294 366.931
v 15.8245 6.92 -9.32005
vt 623.011 366.931
f 210/617/10 207/618/10 206/619/10 211/620/10 

vt 605.294 167.717
vt 623.011 167.717
vt 623.011 272.441
vt 605.294 272.441
f 205/621/21 209/622/21 211/623/21 206/624/21 

vt 366.931 167.717
vt 374.018 167.717
vt 374.018 272.441
vt 366.931 272.441
f 209/625/19 208/626/19 210/627/19 211/628/19 

g Mesh25 Model

v 11.3238 4.10577 -9.06574
vt 456.871 -325.579
v 15.5313 4.12288 -9.02101
vt 622.38 -318.554
v 15.4939 4.63253 -3.72695
vt 614.327 -109.312
v 10.3107 4.61758 -3.71842
vt 410.355 -115.451
f 212/629/88 213/630/88 214/631/88 215/632/88 

vt -607.515 196.242
vt -441.858 195.565
v 11.3234 4.24513 -9.07916
vt -441.835 201.077
v 15.5308 4.26224 -9.03443
vt -607.493 201.753
f 213/633/85 212/634/85 216/635/85 217/636/85 

vt -432.944 153.891
vt -218.675 174.045
v 10.3103 4.75693 -3.73184
vt -219.191 179.533
vt -433.46 159.379
f 212/637/87 215/638/87 218/639/87 216/640/87 

vt 406.133 194.936
vt 610.197 195.527
v 15.4935 4.77188 -3.74036
vt 610.181 201.039
vt 406.117 200.448
f 215/641/90 214/642/90 219/643/90 218/644/90 

vt 150.813 180.136
vt 359.246 160.071
vt 359.774 165.557
vt 151.341 185.622
f 214/645/89 213/646/89 217/647/89 219/648/89 

vt -622.38 -318.554
vt -456.871 -325.579
vt -410.355 -115.451
vt -614.327 -109.312
f 217/649/86 216/650/86 218/651/86 219/652/86 

g Mesh26 Model

v 16.728 8.05 -3.71052
vt -658.581 146.083
v 10.1616 8.05 -3.71052
vt -400.065 146.083
v 12.3985 8.05 -7.2932
vt -488.131 287.134
v 17.1685 8.05 -7.2932
vt -675.926 287.134
v 17.7278 8.05 -7.29795
vt -697.944 287.321
f 220/653/8 221/654/8 222/655/8 223/656/8 224/657/8 

vt 400.065 316.929
vt 658.581 316.929
v 16.728 8.2 -3.71052
vt 658.581 322.835
v 10.1616 8.2 -3.71052
vt 400.065 322.835
f 221/658/21 220/659/21 225/660/21 226/661/21 

vt 317.528 316.929
vn 0.963289 -1.9626e-016 0.268467
vt 464.148 316.929
v 17.7278 8.2 -7.29795
vt 464.148 322.835
vt 317.528 322.835
f 220/662/102 224/663/102 227/664/102 225/665/102 

v 12.3985 8.2 -7.2932
vt -488.387 322.835
vn -0.00089225 1.65334e-031 -1
vt -698.2 322.835
vt -698.2 316.929
vt -488.387 316.929
f 228/666/103 227/667/103 224/668/103 222/669/103 

vt 697.944 287.321
vt 488.131 287.134
v 17.1685 8.2 -7.2932
vt 675.926 287.134
f 227/670/10 228/671/10 229/672/10

vt 400.065 146.083
vt 658.581 146.083
f 228/671/10 226/673/10 225/674/10 227/670/10 229/672/10 

vt -502.077 316.929
vn -0.848242 2.45341e-029 -0.529609
vt -335.792 316.929
vt -335.792 322.835
vt -502.077 322.835
f 222/675/104 221/676/104 226/677/104 228/678/104 

f 222/655/8 224/657/8 223/656/8

g Mesh27 Model

v 15.5206 4.78708 -3.75478
vt 569.773 -244.974
v 15.4006 4.78936 -3.75635
vt 565.131 -244.097
v 15.3893 4.23068 -9.29068
vt 521.625 -458.726
v 15.5092 4.22839 -9.28911
vt 526.267 -459.604
f 230/679/80 231/680/80 232/681/80 233/682/80 

vt 604.332 188.281
vn -0.0131172 -0.00177428 0.999912
vt 609.056 188.191
v 15.5708 7.4266 -3.74944
vt 611.034 292.109
v 15.4508 7.42888 -3.75101
vt 606.311 292.199
f 231/683/105 230/684/105 234/685/105 235/686/105 

vt 147.532 303.988
vn 0.999819 -0.0190118 -0.000136074
vt 147.743 200.051
vt 365.63 178.052
v 15.5594 6.86791 -9.28377
vt 365.419 281.988
f 234/687/106 230/688/106 233/689/106 236/690/106 

vt -605.75 165.809
vn 0.0131172 0.00177428 -0.999912
vt -601.026 165.899
v 15.4395 6.8702 -9.28534
vt -603.005 269.817
vt -607.728 269.727
f 233/691/107 232/692/107 237/693/107 236/694/107 

vt -147.805 200.051
vn -0.999819 0.0190118 0.000136074
vt -147.595 303.988
vt -365.482 281.989
vt -365.692 178.052
f 231/695/108 235/696/108 237/697/108 232/698/108 

vt -567.11 -233.63
vt -571.752 -234.508
vt -528.246 -449.138
vt -523.604 -448.26
f 235/699/82 234/700/82 236/701/82 237/702/82 

g Mesh28 Model

v 9.58386 4.66 -0.401968
vt 325.504 183.465
vn 0.542715 0 0.839917
v 10.2339 4.66 -0.821968
vt 355.972 183.465
v 10.2339 4.82 -0.821968
vt 355.972 189.764
v 9.58386 4.82 -0.401968
vt 325.504 189.764
f 238/703/109 239/704/109 240/705/109 241/706/109 

vt -402.908 32.3609
vt -377.317 15.8255
v 9.58386 4.66 -4.25197
vt -377.317 167.4
v 10.2339 4.66 -3.91197
vt -402.908 154.014
f 239/707/8 238/708/8 242/709/8 243/710/8 

vt -167.4 183.465
vt -15.8255 183.465
vt -15.8255 189.764
v 9.58386 4.82 -4.25197
vt -167.4 189.764
f 242/711/23 238/712/23 241/713/23 244/714/23 

vt 377.317 15.8255
vt 402.908 32.3609
v 10.2339 4.82 -3.91197
vt 402.908 154.014
vt 377.317 167.4
f 241/715/10 240/716/10 245/717/10 244/718/10 

vt 32.3609 183.465
vt 154.014 183.465
vt 154.014 189.764
vt 32.3609 189.764
f 239/719/19 243/720/19 245/721/19 240/722/19 

vt -285.631 183.465
vn 0.463498 0 -0.886098
vt -256.751 183.465
vt -256.751 189.764
vt -285.631 189.764
f 243/723/110 242/724/110 244/725/110 245/726/110 

g Mesh29 Model

v 9.62386 7.63 -0.371968
vt 326.186 300.394
v 10.2739 7.63 -0.791968
vt 356.654 300.394
v 10.2739 7.79 -0.791968
vt 356.654 306.693
v 9.62386 7.79 -0.371968
vt 326.186 306.693
f 246/727/109 247/728/109 248/729/109 249/730/109 

vt -404.483 31.1798
vt -378.892 14.6444
v 9.62386 7.63 -4.34197
vt -378.892 170.944
v 10.2739 7.63 -4.00197
vt -404.483 157.558
f 247/731/8 246/732/8 250/733/8 251/734/8 

vt -170.944 300.394
vt -14.6444 300.394
vt -14.6444 306.693
v 9.62386 7.79 -4.34197
vt -170.944 306.693
f 250/735/23 246/736/23 249/737/23 252/738/23 

vt 378.892 14.6444
vt 404.483 31.1798
v 10.2739 7.79 -4.00197
vt 404.483 157.558
vt 378.892 170.944
f 249/739/10 248/740/10 253/741/10 252/742/10 

vt 31.1798 300.394
vt 157.558 300.394
vt 157.558 306.693
vt 31.1798 306.693
f 247/743/19 251/744/19 253/745/19 248/746/19 

vt -285.384 300.394
vt -256.504 300.394
vt -256.504 306.693
vt -285.384 306.693
f 251/747/110 250/748/110 252/749/110 253/750/110 

g Mesh30 Model

v 9.64458 4.80497 -4.22167
vt -322.303 189.172
vn -0.887815 0 -0.4602
v 9.57555 4.80497 -4.0885
vt -316.398 189.172
v 9.57555 7.60497 -4.0885
vt -316.398 299.408
v 9.64458 7.60497 -4.22167
vt -322.303 299.408
f 254/751/111 255/752/111 256/753/111 257/754/111 

vt -379.708 166.208
v 10.4081 4.80497 -3.8259
vt -409.768 150.626
v 10.3391 4.80497 -3.69273
vt -407.05 145.383
vt -376.99 160.965
f 254/755/8 258/756/8 259/757/8 255/758/8 

vt -294.48 189.172
vn 0.4602 0 -0.887815
vt -260.622 189.172
vt -260.622 299.408
v 10.4081 7.60497 -3.8259
vt -294.48 299.408
f 258/759/112 254/760/112 257/761/112 260/762/112 

vt 409.768 150.626
vt 379.708 166.208
vt 376.99 160.965
v 10.3391 7.60497 -3.69273
vt 407.05 145.383
f 260/763/10 257/764/10 256/765/10 261/766/10 

vt 260.622 189.172
vn -0.4602 0 0.887815
vt 294.48 189.172
vt 294.48 299.408
vt 260.622 299.408
f 255/767/113 259/768/113 261/769/113 256/770/113 

vt 316.398 189.172
vn 0.887815 0 0.4602
vt 322.303 189.172
vt 322.303 299.408
vt 316.398 299.408
f 259/771/114 258/772/114 260/773/114 261/774/114 

g Mesh31 Model

v 10.2294 7.58497 -1.01816
vt 402.734 40.085
v 9.60924 7.58497 -0.614495
vt 378.316 24.1927
v 9.69106 7.58497 -0.488777
vt 381.538 19.2432
v 10.3113 7.58497 -0.892442
vt 405.955 35.1355
f 262/775/10 263/776/10 264/777/10 265/778/10 

v 10.2294 4.80497 -1.01816
vt -359.403 189.172
vn -0.545493 0 -0.838115
v 9.60924 4.80497 -0.614495
vt -330.27 189.172
vt -330.27 298.621
vt -359.403 298.621
f 266/779/115 267/780/115 263/781/115 262/782/115 

vt -378.316 24.1927
vt -402.734 40.085
v 10.3113 4.80497 -0.892442
vt -405.955 35.1355
v 9.69106 4.80497 -0.488777
vt -381.538 19.2432
f 267/783/8 266/784/8 268/785/8 269/786/8 

vt -191.998 189.172
vn 0.838115 0 -0.545493
vt -186.093 189.172
vt -186.093 298.621
vt -191.998 298.621
f 268/787/116 266/788/116 262/789/116 265/790/116 

vt 330.27 189.172
vn 0.545493 0 0.838115
vt 359.403 189.172
vt 359.403 298.621
vt 330.27 298.621
f 269/791/117 268/792/117 265/793/117 264/794/117 

vt 186.093 189.172
vn -0.838115 0 0.545493
vt 191.998 189.172
vt 191.998 298.621
vt 186.093 298.621
f 267/795/118 269/796/118 264/797/118 263/798/118 

g Mesh32 Model

v 20.2863 7.42609 -3.96824
vt 798.674 156.23
v 16.6163 7.42609 -3.96824
vt 654.186 156.23
v 16.6163 7.42609 -3.76824
vt 654.186 148.356
v 20.2863 7.42609 -3.76824
vt 798.674 148.356
f 270/799/10 271/800/10 272/801/10 273/802/10 

v 20.2863 4.67609 -3.96824
vt -798.674 184.098
v 16.6163 4.67609 -3.96824
vt -654.186 184.098
vt -654.186 292.366
vt -798.674 292.366
f 274/803/22 275/804/22 271/805/22 270/806/22 

vt -654.186 156.23
vt -798.674 156.23
v 20.2863 4.67609 -3.76824
vt -798.674 148.356
v 16.6163 4.67609 -3.76824
vt -654.186 148.356
f 275/807/8 274/808/8 276/809/8 277/810/8 

vt 148.356 184.098
vt 156.23 184.098
vt 156.23 292.366
vt 148.356 292.366
f 276/811/19 274/812/19 270/813/19 273/814/19 

vt 654.186 184.098
vt 798.674 184.098
vt 798.674 292.366
vt 654.186 292.366
f 277/815/21 276/816/21 273/817/21 272/818/21 

vt -156.23 184.098
vt -148.356 184.098
vt -148.356 292.366
vt -156.23 292.366
f 275/819/23 277/820/23 272/821/23 271/822/23 

g Mesh33 Model

v 16.631 8.47107 5.41915
vt -654.762 333.507
v 13.051 8.47107 5.41915
vt -513.817 333.507
v 13.051 9.29107 5.41915
vt -513.817 365.79
v 16.631 9.29107 5.41915
vt -654.762 365.79
f 278/823/22 279/824/22 280/825/22 281/826/22 

vt -513.817 -213.352
vt -654.762 -213.352
v 16.631 8.47107 5.61915
vt -654.762 -221.226
v 13.051 8.47107 5.61915
vt -513.817 -221.226
f 279/827/8 278/828/8 282/829/8 283/830/8 

vt -221.226 333.507
vt -213.352 333.507
vt -213.352 365.79
v 16.631 9.29107 5.61915
vt -221.226 365.79
f 282/831/19 278/832/19 281/833/19 284/834/19 

vt 654.762 -213.352
vt 513.817 -213.352
v 13.051 9.29107 5.61915
vt 513.817 -221.226
vt 654.762 -221.226
f 281/835/10 280/836/10 285/837/10 284/838/10 

vt 213.352 333.507
vt 221.226 333.507
vt 221.226 365.79
vt 213.352 365.79
f 279/839/23 283/840/23 285/841/23 280/842/23 

vt 513.817 333.507
vt 654.762 333.507
vt 654.762 365.79
vt 513.817 365.79
f 283/843/21 282/844/21 284/845/21 285/846/21 

g Mesh34 Model

v 10.2813 4.74037 -3.69241
vt 145.37 186.629
vn 1 0 -1.54008e-013
v 10.2813 4.74037 -3.84241
vt 151.276 186.629
v 10.2813 7.54037 -3.84241
vt 151.276 296.865
v 10.2813 7.54037 -3.69241
vt 145.37 296.865
f 286/847/119 287/848/119 288/849/119 289/850/119 

vt -404.776 151.276
vt -404.776 145.37
v 9.65131 4.74037 -3.69241
vt -379.973 145.37
v 9.65131 4.74037 -3.84241
vt -379.973 151.276
f 287/851/8 286/852/8 290/853/8 291/854/8 

vt 404.776 186.629
vn 1.53549e-013 0 1
vt 404.776 296.865
v 9.65131 7.54037 -3.69241
vt 379.973 296.865
vt 379.973 186.629
f 286/855/120 289/856/120 292/857/120 290/858/120 

vt 404.776 145.37
vt 404.776 151.276
v 9.65131 7.54037 -3.84241
vt 379.973 151.276
vt 379.973 145.37
f 289/859/10 288/860/10 293/861/10 292/862/10 

vt -404.776 296.865
vn -1.53549e-013 0 -1
vt -404.776 186.629
vt -379.973 186.629
vt -379.973 296.865
f 288/863/121 287/864/121 291/865/121 293/866/121 

vt -151.276 186.629
vn -1 0 1.54008e-013
vt -145.37 186.629
vt -145.37 296.865
vt -151.276 296.865
f 291/867/122 290/868/122 292/869/122 293/870/122 

g Mesh35 Model

v 10.2813 7.54037 -1.13241
v 10.2813 4.74037 -1.13241
v 9.65131 4.74037 -1.13241
v 9.65131 7.54037 -1.13241
f 294/863/121 295/864/121 296/865/121 297/866/121 

v 10.2813 4.74037 -0.982406
vt 38.6774 186.629
vt 44.5829 186.629
vt 44.5829 296.865
v 10.2813 7.54037 -0.982406
vt 38.6774 296.865
f 298/871/119 295/872/119 294/873/119 299/874/119 

vt -404.776 44.5829
vt -404.776 38.6774
v 9.65131 4.74037 -0.982406
vt -379.973 38.6774
vt -379.973 44.5829
f 295/875/8 298/876/8 300/877/8 296/878/8 

v 9.65131 7.54037 -0.982406
f 298/855/120 299/856/120 301/857/120 300/858/120 

vt 404.776 38.6774
vt 404.776 44.5829
vt 379.973 44.5829
vt 379.973 38.6774
f 299/879/10 294/880/10 297/881/10 301/882/10 

vt -44.5829 186.629
vt -38.6774 186.629
vt -38.6774 296.865
vt -44.5829 296.865
f 296/883/122 300/884/122 301/885/122 297/886/122 

g Mesh36 Model

v 14.3113 8.16037 -0.932406
vt -563.438 36.7089
v 14.3113 8.16037 -0.782406
vt -563.438 30.8034
v 9.65131 8.16037 -0.782406
vt -379.973 30.8034
v 9.65131 8.16037 -0.932406
vt -379.973 36.7089
f 302/887/8 303/888/8 304/889/8 305/890/8 

vt 30.8034 321.274
vt 36.7089 321.274
v 14.3113 11.3004 -0.932406
vt 36.7089 444.896
v 14.3113 11.3004 -0.782406
vt 30.8034 444.896
f 303/891/119 302/892/119 306/893/119 307/894/119 

vt -563.438 444.896
vn -1.53987e-013 -6.51153e-044 -1
vt -563.438 321.274
vt -379.973 321.274
v 9.65131 11.3004 -0.932406
vt -379.973 444.896
f 306/895/123 302/896/123 305/897/123 308/898/123 

vt -36.7089 321.274
vt -30.8034 321.274
v 9.65131 11.3004 -0.782406
vt -30.8034 444.896
vt -36.7089 444.896
f 305/899/122 304/900/122 309/901/122 308/902/122 

vt 563.438 321.274
vn 1.53987e-013 0 1
vt 563.438 444.896
vt 379.973 444.896
vt 379.973 321.274
f 303/903/124 307/904/124 309/905/124 304/906/124 

vt 563.438 30.8034
vt 563.438 36.7089
vt 379.973 36.7089
vt 379.973 30.8034
f 307/907/10 306/908/10 308/909/10 309/910/10 

g Mesh37 Model

v 10.2339 8.08 -0.821968
vt 32.3609 318.11
v 10.2339 8.08 -3.91197
vt 154.014 318.11
v 10.2339 8.24 -3.91197
vt 154.014 324.409
v 10.2339 8.24 -0.821968
vt 32.3609 324.409
f 310/911/19 311/912/19 312/913/19 313/914/19 

v 9.58386 8.08 -0.401968
v 9.58386 8.08 -4.25197
f 310/707/8 314/708/8 315/709/8 311/710/8 

vt 325.504 318.11
vt 355.972 318.11
vt 355.972 324.409
v 9.58386 8.24 -0.401968
vt 325.504 324.409
f 314/915/109 310/916/109 313/917/109 316/918/109 

v 9.58386 8.24 -4.25197
f 316/715/10 313/716/10 312/717/10 317/718/10 

vt -285.631 318.11
vt -256.751 318.11
vt -256.751 324.409
vt -285.631 324.409
f 311/919/110 315/920/110 317/921/110 312/922/110 

vt -167.4 318.11
vt -15.8255 318.11
vt -15.8255 324.409
vt -167.4 324.409
f 315/923/23 314/924/23 316/925/23 317/926/23 

g Mesh38 Model

v 10.4081 11.325 -3.8259
v 9.64458 11.325 -4.22167
v 9.57555 11.325 -4.0885
v 10.3391 11.325 -3.69273
f 318/763/10 319/764/10 320/765/10 321/766/10 

v 10.4081 8.22497 -3.8259
vt -294.48 323.818
v 9.64458 8.22497 -4.22167
vt -260.622 323.818
vt -260.622 445.865
vt -294.48 445.865
f 322/927/112 323/928/112 319/929/112 318/930/112 

v 10.3391 8.22497 -3.69273
v 9.57555 8.22497 -4.0885
f 323/755/8 322/756/8 324/757/8 325/758/8 

vt 316.398 323.818
vt 322.303 323.818
vt 322.303 445.865
vt 316.398 445.865
f 324/931/114 322/932/114 318/933/114 321/934/114 

vt 260.622 323.818
vt 294.48 323.818
vt 294.48 445.865
vt 260.622 445.865
f 325/935/113 324/936/113 321/937/113 320/938/113 

vt -322.303 323.818
vt -316.398 323.818
vt -316.398 445.865
vt -322.303 445.865
f 323/939/111 325/940/111 320/941/111 319/942/111 

g Mesh39 Model

v 9.60924 8.22497 -0.614495
vt 186.093 323.818
v 9.69106 8.22497 -0.488777
vt 191.998 323.818
v 9.69106 11.32 -0.488777
vt 191.998 445.669
v 9.60924 11.32 -0.614495
vt 186.093 445.669
f 326/943/118 327/944/118 328/945/118 329/946/118 

v 10.0953 8.22497 -0.930881
vt -397.454 36.6488
v 10.1772 8.22497 -0.805163
vt -400.676 31.6993
f 326/783/8 330/947/8 331/948/8 327/786/8 

vt -353.104 323.818
vt -330.27 323.818
vt -330.27 445.669
v 10.0953 11.32 -0.930881
vt -353.104 445.669
f 330/949/115 326/950/115 329/951/115 332/952/115 

v 10.1772 11.32 -0.805163
vt 400.676 31.6993
vt 397.454 36.6488
f 333/953/10 332/954/10 329/776/10 328/777/10 

vt -191.998 323.818
vt -186.093 323.818
vt -186.093 445.669
vt -191.998 445.669
f 331/955/116 330/956/116 332/957/116 333/958/116 

vt 330.27 323.818
vt 353.104 323.818
vt 353.104 445.669
vt 330.27 445.669
f 327/959/117 331/960/117 333/961/117 328/962/117 

g Mesh40 Model

v 10.1702 11.3312 -0.782406
vt 400.401 446.111
v 20.3102 11.3312 -0.782406
vt 799.613 446.111
v 20.3102 11.4912 -0.782406
vt 799.613 452.41
v 10.1702 11.4912 -0.782406
vt 400.401 452.41
f 334/963/21 335/964/21 336/965/21 337/966/21 

vt -799.613 30.8034
vt -400.401 30.8034
v 10.1702 11.3312 -3.83328
vt -400.401 150.916
v 20.3102 11.3312 -3.83328
vt -799.613 150.916
f 335/967/8 334/968/8 338/969/8 339/970/8 

vt -150.916 446.111
vt -30.8034 446.111
vt -30.8034 452.41
v 10.1702 11.4912 -3.83328
vt -150.916 452.41
f 338/971/23 334/972/23 337/973/23 340/974/23 

vt 400.401 30.8034
vt 799.613 30.8034
v 20.3102 11.4912 -3.83328
vt 799.613 150.916
vt 400.401 150.916
f 337/975/10 336/976/10 341/977/10 340/978/10 

vt 30.8034 446.111
vt 150.916 446.111
vt 150.916 452.41
vt 30.8034 452.41
f 335/979/19 339/980/19 341/981/19 336/982/19 

vt -799.613 446.111
vt -400.401 446.111
vt -400.401 452.41
vt -799.613 452.41
f 339/983/22 338/984/22 340/985/22 341/986/22 

g Mesh41 Model

v 20.2313 11.3004 -0.782406
vt 796.508 30.8034
v 20.2313 11.3004 -0.932406
vt 796.508 36.7089
v 17.1113 11.3004 -0.932406
vt 673.674 36.7089
v 17.1113 11.3004 -0.782406
vt 673.674 30.8034
f 342/987/10 343/988/10 344/989/10 345/990/10 

v 20.2313 8.16037 -0.782406
v 20.2313 8.16037 -0.932406
f 346/891/119 347/892/119 343/893/119 342/894/119 

vt -796.508 36.7089
vt -796.508 30.8034
v 17.1113 8.16037 -0.782406
vt -673.674 30.8034
v 17.1113 8.16037 -0.932406
vt -673.674 36.7089
f 347/991/8 346/992/8 348/993/8 349/994/8 

vt 796.508 321.274
vt 796.508 444.896
vt 673.674 444.896
vt 673.674 321.274
f 346/995/124 342/996/124 345/997/124 348/998/124 

f 349/899/122 348/900/122 345/901/122 344/902/122 

vt -796.508 444.896
vt -796.508 321.274
vt -673.674 321.274
vt -673.674 444.896
f 343/999/123 347/1000/123 349/1001/123 344/1002/123 

g Mesh42 Model

v 20.2313 11.3004 -3.69241
vt 796.508 145.37
v 20.2313 11.3004 -3.84241
vt 796.508 151.276
v 16.8613 11.3004 -3.84241
vt 663.831 151.276
v 16.8613 11.3004 -3.69241
vt 663.831 145.37
f 350/1003/10 351/1004/10 352/1005/10 353/1006/10 

v 20.2313 8.16037 -3.69241
vt 145.37 321.274
vn 1 -3.2562e-044 -1.54008e-013
v 20.2313 8.16037 -3.84241
vt 151.276 321.274
vt 151.276 444.896
vt 145.37 444.896
f 354/1007/125 355/1008/125 351/1009/125 350/1010/125 

vt -796.508 151.276
vt -796.508 145.37
v 16.8613 8.16037 -3.69241
vt -663.831 145.37
v 16.8613 8.16037 -3.84241
vt -663.831 151.276
f 355/1011/8 354/1012/8 356/1013/8 357/1014/8 

vn 1.541e-013 0 1
vt 663.831 444.896
vt 663.831 321.274
f 354/995/126 350/996/126 353/1015/126 356/1016/126 

vt -151.276 321.274
vt -145.37 321.274
vt -145.37 444.896
vt -151.276 444.896
f 357/1017/122 356/1018/122 353/1019/122 352/1020/122 

vn -1.53869e-013 -6.97722e-030 -1
vt -663.831 321.274
vt -663.831 444.896
f 351/999/127 355/1000/127 357/1021/127 352/1022/127 

g Mesh43 Model

v 14.0286 8.20037 -9.61653
vt -552.308 378.604
v 12.5352 8.20037 -7.22658
vt -493.512 284.511
v 12.408 8.20037 -7.30607
vt -488.504 287.64
v 13.9014 8.20037 -9.69602
vt -547.299 381.733
f 358/1023/8 359/1024/8 360/1025/8 361/1026/8 

vt 502.801 322.849
vn 0.848048 -2.13843e-016 0.529919
vt 613.752 322.849
v 14.0286 11.0592 -9.61653
vt 613.752 435.402
v 12.5352 11.3404 -7.22658
vt 502.801 446.471
f 359/1027/128 358/1028/128 362/1029/128 363/1030/128 

vt -261.849 322.849
vn 0.529919 2.16305e-031 -0.848048
v 13.9014 11.0592 -9.69602
vt -261.849 435.402
vt -267.754 435.402
vt -267.754 322.849
f 361/1031/129 364/1032/129 362/1033/129 358/1034/129 

v 12.408 11.3404 -7.30607
vt -502.801 446.471
vn -0.848048 -2.04267e-016 -0.529919
vt -613.752 435.402
vt -613.752 322.849
vt -502.801 322.849
f 365/1035/130 364/1036/130 361/1037/130 360/1038/130 

vt -261.849 -455.995
vn 0.0526062 0.99506 -0.0841875
vt -267.754 -455.995
vt -267.754 -567.497
vt -261.849 -567.497
f 365/1039/131 363/1040/131 362/1041/131 364/1042/131 

vt 261.849 322.849
vn -0.529919 0 0.848048
vt 267.754 322.849
vt 267.754 446.471
vt 261.849 446.471
f 360/1043/132 359/1044/132 363/1045/132 365/1046/132 

g Mesh44 Model

v 10.248 8.20037 -3.86607
vt 261.5 322.849
v 10.3752 8.20037 -3.78658
vt 267.405 322.849
v 10.3752 11.3404 -3.78658
vt 267.405 446.471
v 10.248 11.3404 -3.86607
vt 261.5 446.471
f 366/1047/132 367/1048/132 368/1049/132 369/1050/132 

v 12.5257 8.20037 -7.22811
vt -493.138 284.571
vt -408.473 149.078
vt -403.465 152.207
v 12.3985 8.20037 -7.3076
vt -488.13 287.701
f 370/1051/8 367/1052/8 366/1053/8 371/1054/8 

v 12.5257 11.3404 -7.22811
vt 502.654 446.471
vn 0.848048 -2.27113e-016 0.529919
vt 342.883 446.471
vt 342.883 322.849
vt 502.654 322.849
f 372/1055/133 368/1056/133 367/1057/133 370/1058/133 

v 12.3985 11.3404 -7.3076
vt 488.13 287.701
vt 403.465 152.207
vt 408.473 149.078
vt 493.138 284.571
f 373/1059/10 369/1060/10 368/1061/10 372/1062/10 

vt -502.654 322.849
vn -0.848048 -2.01878e-016 -0.529919
vt -342.883 322.849
vt -342.883 446.471
vt -502.654 446.471
f 371/1063/134 366/1064/134 369/1065/134 373/1066/134 

vt -267.405 322.849
vn 0.529919 0 -0.848048
vt -261.5 322.849
vt -261.5 446.471
vt -267.405 446.471
f 370/1067/135 371/1068/135 373/1069/135 372/1070/135 

g Mesh45 Model

v 17.7509 11.3404 -7.30588
vt 698.853 287.633
v 17.7466 11.3404 -7.30702
vt 698.686 287.678
v 17.7487 11.3404 -7.29792
vt 698.769 287.32
f 374/1071/10 375/1072/10 376/1073/10

v 17.606 11.3404 -7.34471
vt 693.149 289.162
v 17.5942 11.3404 -7.30061
vt 692.684 287.426
v 17.605 11.3404 -7.25391
vt 693.108 285.587
v 17.5793 11.3404 -7.24513
vt 692.098 285.241
v 17.3036 11.3404 -6.21633
vt 681.246 244.737
v 17.383 11.3404 -6.19507
vt 684.37 243.9
v 17.4485 11.3404 -6.17751
vt 686.95 243.209
v 17.7312 11.3404 -7.23255
vt 698.08 284.746
f 377/1074/10 378/1075/10 379/1076/10 380/1077/10 381/1078/10 382/1079/10 383/1080/10 384/1081/10 376/1073/10 375/1072/10 

f 378/1075/10 380/1077/10 379/1076/10

v 17.5757 8.20037 -7.24389
vt 747.028 322.849
vn 0.323917 4.68847e-016 0.946085
v 17.5793 8.20037 -7.24513
vt 747.179 322.849
v 17.7176 8.20037 -7.29248
vt 752.934 322.849
v 17.7176 11.3404 -7.29248
vt 752.934 446.471
vt 748.246 446.471
vt 747.179 446.471
v 17.5757 11.3404 -7.24389
vt 747.028 446.471
f 385/1082/136 386/1083/136 387/1084/136 388/1085/136 379/1086/136 380/1087/136 389/1088/136 

vt -691.973 285.162
vn 5.21605e-005 -1 9.49095e-005
v 17.551 8.20036 -7.316
vt -691.001 288.001
v 17.5984 8.20036 -7.31631
vt -692.866 288.013
vt -692.115 285.211
f 385/1089/137 390/1090/137 391/1091/137 386/1092/137 

vt -45.6798 446.471
vn -0.946085 -8.85378e-011 0.323917
v 16.6628 11.0592 -9.91013
vt -156.632 435.402
v 16.6628 8.20037 -9.91013
vt -156.632 322.849
vt -48.6805 322.849
vt -45.6798 322.849
f 389/1093/138 392/1094/138 393/1095/138 390/1096/138 385/1097/138 

vt -747.028 -1.13205
vn -0.0321559 0.99506 -0.0939198
vt -747.179 -1.13205
vt -748.246 -1.13205
vt -752.934 -1.13205
v 16.8047 11.0592 -9.95871
vt -752.934 -112.635
vt -747.028 -112.635
f 389/1098/139 380/1099/139 379/1100/139 388/1101/139 394/1102/139 392/1103/139 

v 17.7092 8.20037 -7.31705
vt 46.7025 322.849
vn 0.946085 -7.90742e-016 -0.323917
v 16.8047 8.20037 -9.95871
vt 156.632 322.849
vt 156.632 435.402
vt 45.6798 446.471
vt 45.6798 322.849
f 395/1104/140 396/1105/140 394/1106/140 388/1107/140 387/1108/140 

v 17.606 8.20037 -7.34471
vt -693.157 289.165
vn 2.57217e-005 -1 -1.00229e-005
vt -692.858 288.047
vt -690.992 288.035
vt -656.025 390.166
vt -661.612 392.079
vt -697.22 288.076
f 397/1109/141 391/1110/141 390/1111/141 393/1112/141 396/1113/141 395/1114/141 

vt -693.165 289.222
vn 5.03861e-005 -1 -0.000188043
vt -697.228 288.134
vt -692.866 288.105
f 397/1115/142 395/1116/142 391/1117/142

f 395/1116/142 391/1117/142 397/1115/142

vt -692.11 285.216
vn 3.69151e-005 -1 7.81162e-005
vt -692.861 288.019
vt -697.224 288.048
vt -697.555 287.08
f 386/1118/143 391/1119/143 395/1120/143 387/1121/143 

f 391/1119/143 395/1120/143 387/1121/143 386/1118/143 

f 391/1119/143 395/1120/143 387/1121/143 386/1118/143 

f 390/1090/137 391/1091/137 386/1092/137 385/1089/137 

f 390/1090/137 391/1091/137 386/1092/137 385/1089/137 

vt -747.028 322.849
vn -0.323917 -4.06549e-031 -0.946085
vt -747.028 435.402
vt -752.934 435.402
vt -752.934 322.849
f 393/1122/144 392/1123/144 394/1124/144 396/1125/144 

v 17.825 11.3404 -7.20602
vt 701.77 283.702
v 16.6982 11.3404 -3.77501
vt 657.409 148.623
v 16.8425 11.3404 -3.73417
vt 663.092 147.015
f 398/1126/10 384/1081/10 383/1080/10 382/1079/10 399/1127/10 400/1128/10 

v 17.825 8.20037 -7.20602
vt -598.01 322.849
vn 0.27228 9.04651e-017 -0.962218
v 17.6806 8.20037 -7.24687
vt -592.104 322.849
v 17.6806 11.3404 -7.24687
vt -592.104 446.471
vt -594.174 446.471
vt -598.01 446.471
f 401/1129/145 402/1130/145 403/1131/145 384/1132/145 398/1133/145 

vt -701.77 283.702
v 16.8425 8.20037 -3.73417
vt -663.092 147.015
v 16.6982 8.20037 -3.77501
vt -657.409 148.623
vt -696.088 285.31
f 401/1134/8 404/1135/8 405/1136/8 402/1137/8 

vt 464.061 446.471
vn 0.962218 -4.43796e-016 0.27228
vt 322.007 446.471
vt 322.007 322.849
vt 464.061 322.849
f 398/1138/146 400/1139/146 404/1140/146 401/1141/146 

vt 592.104 322.849
vn -0.27228 1.25075e-016 0.962218
vt 598.01 322.849
vt 598.01 446.471
vt 592.104 446.471
f 405/1142/147 404/1143/147 400/1144/147 399/1145/147 

vt -464.061 322.849
vn -0.962218 -3.05934e-017 -0.27228
vt -322.007 322.849
vt -322.007 446.471
vt -421.026 446.471
vt -464.061 446.471
f 402/1146/148 405/1147/148 399/1148/148 382/1149/148 403/1150/148 

vt 696.088 285.31
f 403/1151/10 382/1079/10 383/1080/10 384/1081/10 

g Mesh46 Model

v 17.7466 11.3312 -7.03328
vt -683.571 446.111
vn 0.0512705 0 -0.998685
v 12.3969 11.3312 -7.30792
vt -472.673 446.111
v 12.3969 11.4912 -7.30792
vt -472.673 452.41
v 17.7466 11.4912 -7.03328
vt -683.571 452.41
f 406/1152/149 407/1153/149 408/1154/149 409/1155/149 

v 16.8196 11.3312 -3.84241
vt -662.189 151.276
v 10.1315 11.3312 -3.83587
vt -398.877 151.019
vt -488.066 287.713
vt -698.686 276.901
f 410/1156/8 411/1157/8 407/1158/8 406/1159/8 

vt 399.024 446.111
vn 0.000976812 0 1
vt 662.336 446.111
v 16.8196 11.4912 -3.84241
vt 662.336 452.41
v 10.1315 11.4912 -3.83587
vt 399.024 452.41
f 411/1160/150 410/1161/150 412/1162/150 413/1163/150 

vt 330.015 446.111
vn 0.960293 0 0.278993
vt 460.835 446.111
vt 460.835 452.41
vt 330.015 452.41
f 410/1164/151 406/1165/151 409/1166/151 412/1167/151 

vt 398.877 151.019
vt 662.189 151.276
vt 698.686 276.901
vt 488.066 287.713
f 413/1168/10 412/1169/10 409/1170/10 408/1171/10 

vt -507.659 446.111
vn -0.837496 0 -0.546443
vt -344.441 446.111
vt -344.441 452.41
vt -507.659 452.41
f 407/1172/152 411/1173/152 413/1174/152 408/1175/152 

g Mesh47 Model

v 17.1933 4.63425 -1.02814
vt -676.901 40.4778
v 20.2333 4.63425 -1.02814
vt -796.586 40.4778
v 20.2333 4.63425 -0.828137
vt -796.586 32.6038
v 17.1933 4.63425 -0.828137
vt -676.901 32.6038
f 414/1176/8 415/1177/8 416/1178/8 417/1179/8 

vt -796.586 182.451
vn -3.747e-016 -2.24682e-033 -1
vt -676.901 182.451
v 17.1933 7.41425 -1.02814
vt -676.901 291.9
v 20.2333 7.41425 -1.02814
vt -796.586 291.9
f 415/1180/153 414/1181/153 418/1182/153 419/1183/153 

vt -40.4778 182.451
vn -1 0 2.05391e-015
vt -32.6038 182.451
v 17.1933 7.41425 -0.828137
vt -32.6038 291.9
vt -40.4778 291.9
f 414/1184/154 417/1185/154 420/1186/154 418/1187/154 

vt 676.901 182.451
vn -9.71445e-017 0 1
vt 796.586 182.451
v 20.2333 7.41425 -0.828137
vt 796.586 291.9
vt 676.901 291.9
f 417/1188/155 416/1189/155 421/1190/155 420/1191/155 

vt 32.6038 182.451
vn 1 1.48072e-019 6.98538e-014
vt 40.4778 182.451
vt 40.4778 291.9
vt 32.6038 291.9
f 416/1192/156 415/1193/156 419/1194/156 421/1195/156 

vt 796.586 40.4778
vt 676.901 40.4778
vt 676.901 32.6038
vt 796.586 32.6038
f 419/1196/10 418/1197/10 420/1198/10 421/1199/10 

g Mesh48 Model

v 17.8137 6.80713 3.34956
vt -701.329 267.997
vn -2.81502e-017 9.72926e-016 -1
v 12.0937 6.80713 3.34956
vt -476.132 267.997
v 12.0937 6.93713 3.34956
vt -476.132 273.115
v 17.8137 6.93713 3.34956
vt -701.329 273.115
vt -701.329 269.178
v 17.8137 6.82713 3.34956
vt -701.329 268.785
f 422/1200/157 423/1201/157 424/1202/157 425/1203/157 155/1204/157 426/1205/157 

v 16.7037 6.80713 5.60956
vt -657.628 -220.849
v 12.9737 6.80713 5.60956
vt -510.777 -220.849
vt -476.132 -131.873
vt -701.329 -131.873
f 427/1206/8 428/1207/8 423/1208/8 422/1209/8 

vt 510.777 267.997
vt 657.628 267.997
v 16.7037 6.93713 5.60956
vt 657.628 273.115
v 12.9737 6.93713 5.60956
vt 510.777 273.115
f 428/1210/21 427/1211/21 429/1212/21 430/1213/21 

vt 91.6837 267.997
vn 0.897582 6.36929e-015 0.440848
vt 190.813 267.997
vt 190.813 268.785
vt 190.813 269.178
vt 190.813 273.115
vt 91.6837 273.115
f 427/1214/158 422/1215/158 426/1216/158 155/1217/158 425/1218/158 429/1219/158 

vt 510.777 -220.849
vt 657.628 -220.849
vt 476.132 -131.873
f 430/1220/10 429/1221/10 425/458/10 424/1222/10 

vt 295.647 267.997
vt 391.131 267.997
vt 391.131 273.115
vt 295.647 273.115
f 423/1223/77 428/1224/77 430/1225/77 424/1226/77 

g Mesh49 Model

v 12.0354 6.84344 3.33428
vt -394.605 274.83
vn -0.360587 0.0185791 -0.932541
v 11.9853 9.9901 3.41637
vt -391.598 398.736
v 12.1159 9.9935 3.36595
vt -397.109 398.87
v 12.166 6.84683 3.28387
vt -400.116 274.964
f 431/1227/159 432/1228/159 433/1229/159 434/1230/159 

v 12.9324 6.84608 5.65714
vt 391.179 259.877
vn -0.93259 -0.0242562 0.360122
v 12.8902 9.30769 5.71377
vt 392.661 356.819
vt 295.451 383.694
vt 293.147 259.773
f 435/1231/160 436/1232/160 432/1233/160 431/1234/160 

vt 392.238 372.404
vn 0.360532 -0.015281 0.932622
vt 394.59 275.479
v 13.0629 6.84948 5.60672
vt 400.1 275.613
v 13.0208 9.31109 5.66335
vt 397.748 372.538
f 436/1235/161 435/1236/161 437/1237/161 438/1238/161 

vt -275.356 419.113
vn 0.0230104 -0.999705 -0.00774686
vt -373.294 423.4
vt -373.535 417.894
vt -275.597 413.606
f 434/1239/162 437/1240/162 435/1241/162 431/1242/162 

vt -392.661 356.819
vn 0.93259 0.0242562 -0.360122
vt -391.179 259.877
vt -293.147 259.773
vt -295.451 383.694
f 438/1243/163 437/1244/163 434/1245/163 433/1246/163 

vt 430.691 -245.34
vn 0.0741782 0.963561 0.256997
vt 421.545 -144.899
vt 416.056 -145.399
vt 425.202 -245.84
f 438/1247/164 433/1248/164 432/1249/164 436/1250/164 

g Mesh50 Model

v 16.6962 9.29149 5.64095
vt 680.951 231.654
vn -0.14106 0.958684 0.247035
v 17.7776 10.0189 3.43547
vt 674.865 332.327
v 17.6522 10.0165 3.37321
vt 669.363 331.994
v 16.5709 9.28909 5.57869
vt 675.449 231.321
f 439/1251/165 440/1252/165 441/1253/165 442/1254/165 

vt 93.4697 353.951
vn 0.895502 0.0171657 0.444727
v 16.7708 6.83062 5.58582
vt 96.7192 257.052
v 17.8775 6.87338 3.3557
vt 194.736 258.736
vt 190.173 382.594
f 439/1255/166 443/1256/166 444/1257/166 440/1258/166 

vt 682.053 362.388
vn -0.444027 -0.0335111 0.895386
v 16.6454 6.82822 5.52356
vt 683.718 265.448
vt 689.229 265.543
vt 687.564 362.482
f 442/1259/167 445/1260/167 443/1261/167 439/1262/167 

vt -96.7192 257.052
vn -0.895502 -0.0171657 -0.444727
vt -93.4697 353.951
vt -190.173 382.594
v 17.7521 6.87097 3.29343
vt -194.736 258.736
f 445/1263/168 442/1264/168 441/1265/168 446/1266/168 

vt -683.757 263.175
vn 0.443925 0.0368081 -0.895308
vt -681.628 387.1
vt -687.139 387.194
vt -689.268 263.27
f 446/1267/169 441/1268/169 440/1269/169 444/1270/169 

vt -349.783 631.282
vt -419.091 561.953
vt -415.193 558.056
vt -345.885 627.385
f 444/1271/162 443/1272/162 445/1273/162 446/1274/162 

g Mesh51 Model

v 10.2339 11.35 -3.91197
vt -285.631 446.85
v 9.58386 11.35 -4.25197
vt -256.751 446.85
v 9.58386 11.51 -4.25197
vt -256.751 453.15
v 10.2339 11.51 -3.91197
vt -285.631 453.15
f 447/1275/110 448/1276/110 449/1277/110 450/1278/110 

v 10.2339 11.35 -0.821968
v 9.58386 11.35 -0.401968
f 451/707/8 452/708/8 448/709/8 447/710/8 

vt 325.504 446.85
vt 355.972 446.85
v 10.2339 11.51 -0.821968
vt 355.972 453.15
v 9.58386 11.51 -0.401968
vt 325.504 453.15
f 452/1279/109 451/1280/109 453/1281/109 454/1282/109 

vt 32.3609 446.85
vt 154.014 446.85
vt 154.014 453.15
vt 32.3609 453.15
f 451/1283/19 447/1284/19 450/1285/19 453/1286/19 

f 454/715/10 453/716/10 450/717/10 449/718/10 

vt -167.4 446.85
vt -15.8255 446.85
vt -15.8255 453.15
vt -167.4 453.15
f 448/1287/23 452/1288/23 454/1289/23 449/1290/23 

g Mesh52 Model

v 10.2464 11.335 -3.69273
vt 403.4 145.383
v 10.2464 11.335 -3.84273
vt 403.4 151.289
v 9.61636 11.335 -3.84273
vt 378.597 151.289
v 9.61636 11.335 -3.69273
vt 378.597 145.383
f 455/1291/10 456/1292/10 457/1293/10 458/1294/10 

v 10.2464 8.25497 -3.69273
vt 145.383 324.999
v 10.2464 8.25497 -3.84273
vt 151.289 324.999
vt 151.289 446.259
vt 145.383 446.259
f 459/1295/119 460/1296/119 456/1297/119 455/1298/119 

vt -403.4 151.289
vt -403.4 145.383
v 9.61636 8.25497 -3.69273
vt -378.597 145.383
v 9.61636 8.25497 -3.84273
vt -378.597 151.289
f 460/1299/8 459/1300/8 461/1301/8 462/1302/8 

vt 403.4 324.999
vn 1.53549e-013 1.43651e-030 1
vt 403.4 446.259
vt 378.597 446.259
vt 378.597 324.999
f 459/1303/170 455/1304/170 458/1305/170 461/1306/170 

vt -151.289 324.999
vt -145.383 324.999
vt -145.383 446.259
vt -151.289 446.259
f 462/1307/122 461/1308/122 458/1309/122 457/1310/122 

vt -403.4 446.259
vn -1.53549e-013 -1.43651e-030 -1
vt -403.4 324.999
vt -378.597 324.999
vt -378.597 446.259
f 456/1311/171 460/1312/171 462/1313/171 457/1314/171 

g Mesh53 Model

v 17.7532 8.19824 -7.31193
vt 696.594 322.765
vn -0.00809181 0 0.999967
v 12.4371 8.19824 -7.35495
vt 487.29 322.765
v 12.4371 8.06824 -7.35495
vt 487.29 317.647
v 17.7532 8.06824 -7.31193
vt 696.594 317.647
f 463/1315/172 464/1316/172 465/1317/172 466/1318/172 

v 13.8946 8.19824 -9.63368
vt 547.032 379.279
vt 489.649 289.565
vt 698.946 287.871
v 16.8178 8.19824 -9.95006
vt 662.118 391.734
f 467/1319/10 464/1320/10 463/1321/10 468/1322/10 

vt -507.771 322.765
vn -0.842416 0 -0.538827
vt -614.266 322.765
v 13.8946 8.06824 -9.63368
vt -614.266 317.647
vt -507.771 317.647
f 464/1323/173 467/1324/173 469/1325/173 465/1326/173 

vt -584.667 322.765
vn -0.1076 0 -0.994194
vt -700.424 322.765
v 16.8178 8.06824 -9.95006
vt -700.424 317.647
vt -584.667 317.647
f 467/1327/174 468/1328/174 470/1329/174 469/1330/174 

vt 147.93 322.765
vn 0.942502 0 -0.334201
vt 37.7311 322.765
vt 37.7311 317.647
vt 147.93 317.647
f 468/1331/175 463/1332/175 466/1333/175 470/1334/175 

vt -489.649 289.565
vt -547.032 379.279
vt -662.118 391.734
vt -698.946 287.871
f 465/1335/8 469/1336/8 470/1337/8 466/1338/8 

g Mesh54 Model

v 17.7478 11.5039 -7.04468
vt 685.711 484.419
vn -0.0441864 0.111404 0.992792
v 12.4171 11.4776 -7.27899
vt 475.636 483.377
v 12.4171 11.3484 -7.26449
vt 475.662 478.259
v 17.7478 11.3747 -7.03018
vt 685.736 479.301
f 471/1339/176 472/1340/176 473/1341/176 474/1342/176 

v 13.9056 11.2045 -9.71323
vt -547.463 -330.835
vn 8.2567e-016 0.993763 -0.111513
vt -488.862 -234.397
vt -698.734 -225.114
v 16.8052 11.1797 -9.93372
vt -661.622 -339.57
f 475/1343/177 472/1344/177 471/1345/177 476/1346/177 

vt -498.023 435.461
vn -0.854591 -0.0579091 -0.516063
vt -610.354 424.689
v 13.9056 11.0753 -9.69873
vt -609.866 419.594
vt -497.534 430.366
f 472/1347/178 475/1348/178 477/1349/178 473/1350/178 

vt -575.206 476.106
vn -0.076295 -0.111188 -0.990866
vt -689.694 475.126
v 16.8052 11.0505 -9.91922
vt -689.65 470.008
vt -575.162 470.988
f 475/1351/179 476/1352/179 478/1353/179 477/1354/179 

vt 169.326 465.671
vn 0.951244 -0.0343951 -0.306516
vt 49.6837 478.442
vt 49.1405 473.353
vt 168.783 460.582
f 476/1355/180 471/1356/180 474/1357/180 478/1358/180 

vt 488.862 -234.397
vn 1.99784e-015 -0.993763 0.111513
vt 547.463 -330.835
vt 661.622 -339.57
vt 698.734 -225.114
f 473/1359/181 477/1360/181 478/1361/181 474/1362/181 

g Mesh55 Model

v 16.5963 7.42609 -3.96824
vt 653.398 156.23
v 15.5863 7.42609 -3.96824
vt 613.635 156.23
v 15.5863 7.42609 -3.76824
vt 613.635 148.356
v 16.5963 7.42609 -3.76824
vt 653.398 148.356
f 479/1363/10 480/1364/10 481/1365/10 482/1366/10 

v 16.5963 4.67609 -3.96824
vt -653.398 184.098
v 15.5863 4.67609 -3.96824
vt -613.635 184.098
vt -613.635 292.366
vt -653.398 292.366
f 483/1367/22 484/1368/22 480/1369/22 479/1370/22 

vt -613.635 156.23
vt -653.398 156.23
v 16.5963 4.67609 -3.76824
vt -653.398 148.356
v 15.5863 4.67609 -3.76824
vt -613.635 148.356
f 484/1371/8 483/1372/8 485/1373/8 486/1374/8 

f 485/811/19 483/812/19 479/813/19 482/814/19 

vt 613.635 184.098
vt 653.398 184.098
vt 653.398 292.366
vt 613.635 292.366
f 486/1375/21 485/1376/21 482/1377/21 481/1378/21 

f 484/819/23 486/820/23 481/821/23 480/822/23 

g Mesh56 Model

v 20.2502 1.18121 -0.893276
v 16.9602 1.18121 -0.893276
vt -667.723 35.1684
v 16.9602 1.18121 -4.14328
vt -667.723 163.121
v 20.2502 1.18121 -4.14328
vt -797.251 163.121
f 487/191/8 488/1379/8 489/1380/8 490/1381/8 

vt 667.723 46.5045
vt 797.251 46.5045
v 20.2502 1.34121 -0.893276
vt 797.251 52.8037
v 16.9602 1.34121 -0.893276
vt 667.723 52.8037
f 488/1382/21 487/1383/21 491/1384/21 492/1385/21 

vt 35.1684 46.5045
vt 163.121 46.5045
v 20.2502 1.34121 -4.14328
vt 163.121 52.8037
vt 35.1684 52.8037
f 487/1386/19 490/1387/19 493/1388/19 491/1389/19 

vt -797.251 46.5045
vt -667.723 46.5045
v 16.9602 1.34121 -4.14328
vt -667.723 52.8037
vt -797.251 52.8037
f 490/1390/22 489/1391/22 494/1392/22 493/1393/22 

vt -163.121 46.5045
vt -35.1684 46.5045
vt -35.1684 52.8037
vt -163.121 52.8037
f 489/1394/23 488/1395/23 492/1396/23 494/1397/23 

vt 667.723 35.1684
vt 797.251 163.121
vt 667.723 163.121
f 492/1398/10 491/184/10 493/1399/10 494/1400/10 

g Mesh57 Model

v 20.4665 1.42367 -4.24439
vt -26.3375 56.0499
vn 0.972165 -1.34444e-018 -0.234296
v 20.4665 3.98367 -4.24439
vt -26.3375 156.837
v 20.5435 3.98367 -3.92501
vt -39.2714 156.837
v 20.5435 1.42367 -3.92501
vt -39.2714 56.0499
f 495/1401/182 496/1402/182 497/1403/182 498/1404/182 

vt -64.832 56.0499
vn 0.960124 -8.35563e-017 -0.279573
v 19.0991 4.22349 -8.94021
vt 127.721 166.279
v 19.0991 6.78349 -8.94021
vt 127.721 267.066
vt -64.832 156.837
f 495/1405/183 499/1406/183 500/1407/183 496/1408/183 

vt -816.591 212.721
vt -821.81 -9.08999
v 20.2861 1.42367 -4.19711
vt -814.466 -9.08999
v 18.9187 4.22349 -8.89294
vt -809.247 212.721
f 499/1409/24 495/1410/24 501/1411/24 502/1412/24 

vt -798.664 165.241
vt -805.768 167.102
vt -808.798 154.528
v 20.363 1.42367 -3.87774
vt -801.694 152.667
f 501/1413/8 495/1414/8 498/1415/8 503/1416/8 

vt 814.211 56.0499
vt 821.555 56.0499
vt 821.555 156.837
v 20.363 3.98367 -3.87774
vt 814.211 156.837
f 503/1417/30 498/1418/30 497/1419/30 504/1420/30 

vt 805.768 167.102
v 20.2861 3.98367 -4.19711
vt 798.664 165.241
vt 801.694 152.667
vt 808.798 154.528
f 496/1421/10 505/1422/10 504/1423/10 497/1424/10 

vt 821.81 40.9965
vt 816.591 262.807
v 18.9187 6.78349 -8.89294
vt 809.247 262.807
vt 814.466 40.9965
f 496/1425/32 500/1426/32 506/1427/32 505/1428/32 

vt 744.831 350.116
vt 751.935 351.977
v 19.0234 6.78349 -9.04673
vt 748.951 356.17
v 18.8424 6.78349 -9.20962
vt 741.826 362.583
f 506/1429/10 500/1430/10 507/1431/10 508/1432/10 

vt -149.195 267.066
vn 0.814759 0 -0.579799
vt -149.195 166.279
v 19.0234 4.22349 -9.04673
vt -144.048 166.279
vt -144.048 267.066
f 500/1433/184 499/1434/184 509/1435/184 507/1436/184 

vt -751.935 351.977
vt -744.831 350.116
v 18.8424 4.22349 -9.20962
vt -741.826 362.583
vt -748.951 356.17
f 499/1437/8 502/1438/8 510/1439/8 509/1440/8 

vt -165.859 166.279
vt -165.859 267.066
vt -178.684 267.066
vt -178.684 166.279
f 502/1441/29 506/1442/29 508/1443/29 510/1444/29 

vt -127.92 166.279
vn -0.960124 -8.35563e-017 0.279573
vt 64.633 56.0499
vt 64.633 156.837
vt -127.92 267.066
f 502/1445/185 501/1446/185 505/1447/185 506/1448/185 

vt 26.4825 156.837
vn -0.972165 1.54714e-018 0.234296
vt 26.4825 56.0499
vt 39.4164 56.0499
vt 39.4164 156.837
f 505/1449/186 501/1450/186 503/1451/186 504/1452/186 

vt -308.789 166.279
vn 0.669013 0 -0.74325
vt -308.789 267.066
vt -318.375 267.066
vt -318.375 166.279
f 510/1453/187 508/1454/187 507/1455/187 509/1456/187 

g Mesh58 Model

v 20.4537 3.99391 -4.17335
vt -12.6975 54.7784
vn 0.969163 0.123228 -0.213395
v 19.0049 6.86829 -9.0936
vt 188.747 168.812
v 19.0049 7.00685 -9.01359
vt 185.671 174.309
v 20.4584 4.11948 -4.07947
vt -16.3472 59.7602
f 511/1457/188 512/1458/188 513/1459/188 514/1460/188 

vt -805.265 221.186
vn -7.18234e-017 -0.863455 -0.504426
v 16.9437 3.99391 -4.17335
vt -667.076 221.186
v 15.4949 6.86829 -9.0936
vt -610.035 445.53
vt -748.224 445.53
f 511/1461/189 515/1462/189 516/1463/189 512/1464/189 

vt 667.076 27.549
vn 3.35287e-019 -0.598795 0.800902
vt 805.265 27.549
vt 805.45 33.7219
v 16.9484 4.11948 -4.07947
vt 667.261 33.7219
f 515/1465/190 511/1466/190 514/1467/190 517/1468/190 

vt 667.261 220.532
vn 0 0.863083 0.505062
vt 805.45 220.532
vt 748.224 445.605
v 15.4949 7.00685 -9.01359
vt 610.035 445.605
f 517/1469/191 514/1470/191 513/1471/191 518/1472/191 

vt -748.224 55.1317
vn 0 0.500074 -0.865983
vt -610.035 55.1317
vt -610.035 61.4309
vt -748.224 61.4309
f 512/1473/192 516/1474/192 518/1475/192 513/1476/192 

vt -218.463 185.443
vn -0.969163 -0.123228 0.213395
vt -17.0178 71.4088
vt -13.3681 76.3906
vt -215.386 190.94
f 516/1477/193 515/1478/193 517/1479/193 518/1480/193 

g Mesh59 Model

v 15.4949 4.10829 -9.0936
vt -218.463 77.6095
v 16.9437 1.23391 -4.17335
vt -17.0178 -36.4245
v 16.9484 1.35948 -4.07947
vt -13.3681 -31.4426
v 15.4949 4.24685 -9.01359
vt -215.386 83.1064
f 519/1481/193 520/1482/193 521/1483/193 522/1484/193 

v 20.4537 1.23391 -4.17335
vt -805.265 166.375
vt -667.076 166.375
vt -610.035 390.718
v 19.0049 4.10829 -9.0936
vt -748.224 390.718
f 523/1485/189 520/1486/189 519/1487/189 524/1488/189 

vt 667.076 -59.4782
vt 805.265 -59.4782
v 20.4584 1.35948 -4.07947
vt 805.45 -53.3053
vt 667.261 -53.3053
f 520/1489/190 523/1490/190 525/1491/190 521/1492/190 

vt -12.6975 -53.0549
vt 188.747 60.9791
v 19.0049 4.24685 -9.01359
vt 185.671 66.476
vt -16.3472 -48.073
f 523/1493/188 524/1494/188 526/1495/188 525/1496/188 

vt -748.224 -38.9672
vt -610.035 -38.9672
vt -610.035 -32.668
vt -748.224 -32.668
f 524/1497/192 519/1498/192 522/1499/192 526/1500/192 

vt 667.261 165.651
vt 805.45 165.651
vt 748.224 390.724
vt 610.035 390.724
f 521/1501/191 525/1502/191 526/1503/191 522/1504/191 

